{"statusCode":200,"messageCode":"success","result":{"robotTasks":{"totalCount":184,"pageNumber":1,"hasMore":true,"items":[{"id":"6f71c8fa-9f41-4bc6-a43b-0ba17617bac2","status":"in-progress","createdAt":1691879180324,"finishedAt":null,"retriedOriginalTaskId":null,"retriedTaskId":null,"retriedByTaskId":null,"startedAt":null,"robotId":"ca977b04-1209-4081-8a39-d729c737ddbd","triedRecordingVideo":false,"robotBulkRunId":null,"runByAPI":true,"runByTaskMonitorId":null,"runByUserId":null,"userFriendlyError":null,"inputParameters":{"originUrl":"https://www.farfetch.com/nl/shopping/Men/ekademe/items.aspx?page=1&view=12&sort=2&scale=282","ekademe_male_products_limit":400},"videoRemovedAt":null,"videoUrl":null,"capturedDataTemporaryUrl":null,"capturedTexts":{},"capturedScreenshots":{},"capturedLists":{}},{"id":"289f5db6-b5ae-49c8-b05d-2f36a3dccbea","status":"in-progress","createdAt":1691879206408,"finishedAt":null,"retriedOriginalTaskId":null,"retriedTaskId":null,"retriedByTaskId":null,"startedAt":null,"robotId":"ca977b04-1209-4081-8a39-d729c737ddbd","triedRecordingVideo":false,"robotBulkRunId":null,"runByAPI":true,"runByTaskMonitorId":null,"runByUserId":null,"userFriendlyError":null,"inputParameters":{"originUrl":"https://www.farfetch.com/nl/shopping/Men/ekademe/items.aspx?page=1&view=12&sort=2&scale=282","ekademe_male_products_limit":400},"videoRemovedAt":null,"videoUrl":null,"capturedDataTemporaryUrl":null,"capturedTexts":{},"capturedScreenshots":{},"capturedLists":{}},{"id":"630bc1fa-4298-48ba-a91d-bebe46deb0da","status":"in-progress","createdAt":1691879222483,"finishedAt":null,"retriedOriginalTaskId":null,"retriedTaskId":null,"retriedByTaskId":null,"startedAt":null,"robotId":"ca977b04-1209-4081-8a39-d729c737ddbd","triedRecordingVideo":false,"robotBulkRunId":null,"runByAPI":true,"runByTaskMonitorId":null,"runByUserId":null,"userFriendlyError":null,"inputParameters":{"originUrl":"https://www.farfetch.com/nl/shopping/Men/ekademe/items.aspx?page=1&view=12&sort=2&scale=282","ekademe_male_products_limit":400},"videoRemovedAt":null,"videoUrl":null,"capturedDataTemporaryUrl":null,"capturedTexts":{},"capturedScreenshots":{},"capturedLists":{}},{"id":"ec98e066-7bdf-4565-9e61-8187cd298b46","status":"in-progress","createdAt":1691879261585,"finishedAt":null,"retriedOriginalTaskId":null,"retriedTaskId":null,"retriedByTaskId":null,"startedAt":null,"robotId":"ca977b04-1209-4081-8a39-d729c737ddbd","triedRecordingVideo":false,"robotBulkRunId":null,"runByAPI":true,"runByTaskMonitorId":null,"runByUserId":null,"userFriendlyError":null,"inputParameters":{"originUrl":"https://www.farfetch.com/nl/shopping/Men/ekademe/items.aspx?page=1&view=12&sort=2&scale=282","ekademe_male_products_limit":400},"videoRemovedAt":null,"videoUrl":null,"capturedDataTemporaryUrl":null,"capturedTexts":{},"capturedScreenshots":{},"capturedLists":{}},{"id":"86b9fd44-4faa-4877-942c-569eb399caa3","status":"in-progress","createdAt":1691879321811,"finishedAt":null,"retriedOriginalTaskId":null,"retriedTaskId":null,"retriedByTaskId":null,"startedAt":null,"robotId":"ca977b04-1209-4081-8a39-d729c737ddbd","triedRecordingVideo":false,"robotBulkRunId":null,"runByAPI":true,"runByTaskMonitorId":null,"runByUserId":null,"userFriendlyError":null,"inputParameters":{"originUrl":"https://www.farfetch.com/nl/shopping/Men/ekademe/items.aspx?page=1&view=12&sort=2&scale=282","ekademe_male_products_limit":400},"videoRemovedAt":null,"videoUrl":null,"capturedDataTemporaryUrl":null,"capturedTexts":{},"capturedScreenshots":{},"capturedLists":{}},{"id":"50903870-ec39-4237-9617-7e72f0d8e905","status":"in-progress","createdAt":1691879501489,"finishedAt":null,"retriedOriginalTaskId":null,"retriedTaskId":null,"retriedByTaskId":null,"startedAt":null,"robotId":"ca977b04-1209-4081-8a39-d729c737ddbd","triedRecordingVideo":false,"robotBulkRunId":null,"runByAPI":true,"runByTaskMonitorId":null,"runByUserId":null,"userFriendlyError":null,"inputParameters":{"originUrl":"https://www.farfetch.com/nl/shopping/Men/ekademe/items.aspx?page=1&view=12&sort=2&scale=282","ekademe_male_products_limit":400},"videoRemovedAt":null,"videoUrl":null,"capturedDataTemporaryUrl":null,"capturedTexts":{},"capturedScreenshots":{},"capturedLists":{}},{"id":"48728209-43ad-4ebc-9fc3-d737cf209dda","status":"in-progress","createdAt":1691879524587,"finishedAt":null,"retriedOriginalTaskId":null,"retriedTaskId":null,"retriedByTaskId":null,"startedAt":null,"robotId":"ca977b04-1209-4081-8a39-d729c737ddbd","triedRecordingVideo":false,"robotBulkRunId":null,"runByAPI":true,"runByTaskMonitorId":null,"runByUserId":null,"userFriendlyError":null,"inputParameters":{"originUrl":"https://www.farfetch.com/nl/shopping/Men/ekademe/items.aspx?page=1&view=12&sort=2&scale=282","ekademe_male_products_limit":400},"videoRemovedAt":null,"videoUrl":null,"capturedDataTemporaryUrl":null,"capturedTexts":{},"capturedScreenshots":{},"capturedLists":{}},{"id":"a44b8433-516f-4239-9da6-54a632c349de","status":"in-progress","createdAt":1691879526568,"finishedAt":null,"retriedOriginalTaskId":null,"retriedTaskId":null,"retriedByTaskId":null,"startedAt":null,"robotId":"ca977b04-1209-4081-8a39-d729c737ddbd","triedRecordingVideo":false,"robotBulkRunId":null,"runByAPI":true,"runByTaskMonitorId":null,"runByUserId":null,"userFriendlyError":null,"inputParameters":{"originUrl":"https://www.farfetch.com/nl/shopping/Men/ekademe/items.aspx?page=1&view=12&sort=2&scale=282","ekademe_male_products_limit":400},"videoRemovedAt":null,"videoUrl":null,"capturedDataTemporaryUrl":null,"capturedTexts":{},"capturedScreenshots":{},"capturedLists":{}},{"id":"02c41140-4193-4109-8139-64eed5a71f1b","status":"in-progress","createdAt":1691879568656,"finishedAt":null,"retriedOriginalTaskId":null,"retriedTaskId":null,"retriedByTaskId":null,"startedAt":null,"robotId":"ca977b04-1209-4081-8a39-d729c737ddbd","triedRecordingVideo":false,"robotBulkRunId":null,"runByAPI":true,"runByTaskMonitorId":null,"runByUserId":null,"userFriendlyError":null,"inputParameters":{"originUrl":"https://www.farfetch.com/nl/shopping/Men/ekademe/items.aspx?page=1&view=12&sort=2&scale=282","ekademe_male_products_limit":400},"videoRemovedAt":null,"videoUrl":null,"capturedDataTemporaryUrl":null,"capturedTexts":{},"capturedScreenshots":{},"capturedLists":{}},{"id":"87ee0425-300a-4d0f-8c60-9f59b8e630b4","status":"in-progress","createdAt":1691878933427,"finishedAt":null,"retriedOriginalTaskId":null,"retriedTaskId":null,"retriedByTaskId":null,"startedAt":null,"robotId":"ca977b04-1209-4081-8a39-d729c737ddbd","triedRecordingVideo":false,"robotBulkRunId":null,"runByAPI":true,"runByTaskMonitorId":null,"runByUserId":null,"userFriendlyError":null,"inputParameters":{"originUrl":"https://www.farfetch.com/nl/shopping/Men/ekademe/items.aspx?page=1&view=12&sort=2&scale=282","ekademe_male_products_limit":400},"videoRemovedAt":null,"videoUrl":null,"capturedDataTemporaryUrl":null,"capturedTexts":{},"capturedScreenshots":{},"capturedLists":{}}]}}}